Chapter 4 Missing values | Olympics
…
For Alpine_Skiing, essential columns reflecting demographic of athletes and races information, like latitude/longitude/season/athlete/nation/gender are not missing. Yet there are significant missing patterns for some extra columns, like ‘FIS Points’/’Bib (starter no). And columns with the most significant missing pattern are time and time differences columns.

Describe Missing pattern by value

## # A tibble: 3,046 × 5
## # Groups:   Race-ID [3,046]
##    `Race-ID`                    Season num_races num_na percent_na
##    <chr>                         <dbl>     <int>  <int>      <dbl>
##  1 2452_Are_1990-03-16            1990        15     15       1   
##  2 184_Kitzbuehel_2009-01-25      2009        86     65       0.76
##  3 6069_Maribor_2006-01-08        2006        83     63       0.76
##  4 12_Levi_2017-11-12             2018        92     68       0.74
##  5 148_Kitzbuehel_2012-01-22      2012        94     70       0.74
##  6 41_Kitzbuehel_2016-01-24       2016        84     62       0.74
##  7 103_Zagreb-Sljeme_2015-01-06   2015        82     60       0.73
##  8 1150_Kitzbuehel_2002-01-20     2002        92     67       0.73
##  9 151_Kitzbuehel_2011-01-23      2011        99     72       0.73
## 10 496_Kitzbuehel_2007-01-28      2007        86     63       0.73
## # … with 3,036 more rows
…
